<?xml version="1.0" encoding="UTF-8"?>
<tap192 version="1.0.0-alpha">
  <options globalvolume="1.000000" max_polyphony="100">
    <jack-output name="Center"/>
    <jack-output name="MultiDiff"/>
    <jack-output name="Stereo"/>
  </options>
  <creation>
    <setup name="Manytubas" channel="1" cc="-1">
      <kit name="Manytubas" volume="1.000000">
        <instrument name="nagra_start" minnote="60" maxnote="60" rootnote="60" rootnotefine="0.000000" channel="1" cut="-1" polyphony="0" output="Center" volume="0.200000" pan="0.000000" pitch_over_range="false" play_mode="normal" play_loop="no" play_reverse="no">
          <variation minveloc="0" maxveloc="127" sample="/home/jeaneudes/OrageOTournage/ManytubasTriVisio/Samples/Common/nagra_start.flac" sampleRelative="../../../Samples/Common/nagra_start.flac"/>
        </instrument>
        <instrument name="nagra_middle" minnote="60" maxnote="60" rootnote="60" rootnotefine="0.000000" channel="1" cut="-1" polyphony="0" output="Center" volume="0.200000" pan="0.000000" pitch_over_range="false" play_mode="normal" play_loop="yes" play_reverse="no">
          <variation minveloc="0" maxveloc="127" sample="/home/jeaneudes/OrageOTournage/ManytubasTriVisio/Samples/Common/nagra_middle.flac" sampleRelative="../../../Samples/Common/nagra_middle.flac"/>
        </instrument>
        <instrument name="nagra_stop" minnote="60" maxnote="60" rootnote="60" rootnotefine="0.000000" channel="1" cut="-1" polyphony="0" output="Center" volume="0.200000" pan="0.000000" pitch_over_range="false" play_mode="normal" play_loop="no" play_reverse="no">
          <variation minveloc="0" maxveloc="127" sample="/home/jeaneudes/OrageOTournage/ManytubasTriVisio/Samples/Common/nagra_stop.flac" sampleRelative="../../../Samples/Common/nagra_stop.flac"/>
        </instrument>
        <instrument name="noisy_switch" minnote="60" maxnote="60" rootnote="60" rootnotefine="0.000000" channel="1" cut="-1" polyphony="0" output="Center" volume="0.100000" pan="0.000000" pitch_over_range="false" play_mode="normal" play_loop="yes" play_reverse="no">
          <variation minveloc="0" maxveloc="127" sample="/home/jeaneudes/OrageOTournage/ManytubasTriVisio/Samples/Common/noisy_switch.flac" sampleRelative="../../../Samples/Common/noisy_switch.flac"/>
        </instrument>
        <instrument name="tuba_out" minnote="60" maxnote="60" rootnote="60" rootnotefine="0.000000" channel="1" cut="-1" polyphony="0" output="Stereo" volume="1.000000" pan="-1.000000" pitch_over_range="false" play_mode="normal" play_loop="no" play_reverse="no">
          <variation minveloc="0" maxveloc="127" sample="/home/jeaneudes/OrageOTournage/ManytubasTriVisio/Samples/Common/tuba_out.flac" sampleRelative="../../../Samples/Common/tuba_out.flac"/>
        </instrument>
        <instrument name="trijc_out_short" minnote="60" maxnote="60" rootnote="60" rootnotefine="0.000000" channel="1" cut="-1" polyphony="0" output="Stereo" volume="1.000000" pan="-1.000000" pitch_over_range="true" play_mode="normal" play_loop="no" play_reverse="no">
          <variation minveloc="0" maxveloc="127" sample="/home/jeaneudes/OrageOTournage/ManytubasTriVisio/Samples/Common/trijc_out_short.flac" sampleRelative="../../../Samples/Common/trijc_out_short.flac"/>
        </instrument>
        <instrument name="trijc_in_short" minnote="60" maxnote="60" rootnote="60" rootnotefine="0.000000" channel="1" cut="-1" polyphony="0" output="Stereo" volume="1.000000" pan="-1.000000" pitch_over_range="true" play_mode="normal" play_loop="no" play_reverse="no">
          <variation minveloc="0" maxveloc="127" sample="/home/jeaneudes/OrageOTournage/ManytubasTriVisio/Samples/Common/trijc_in_short.flac" sampleRelative="../../../Samples/Common/trijc_in_short.flac"/>
        </instrument>
        <instrument name="trijc_in_elastic" minnote="60" maxnote="60" rootnote="60" rootnotefine="0.000000" channel="1" cut="-1" polyphony="0" output="Stereo" volume="0.800000" pan="-1.000000" pitch_over_range="false" play_mode="normal" play_loop="no" play_reverse="no">
          <variation minveloc="0" maxveloc="127" sample="/home/jeaneudes/OrageOTournage/ManytubasTriVisio/Samples/Common/trijc_in_elastic.flac" sampleRelative="../../../Samples/Common/trijc_in_elastic.flac"/>
        </instrument>
        <instrument name="trijc_out_elastic" minnote="60" maxnote="60" rootnote="60" rootnotefine="0.000000" channel="1" cut="-1" polyphony="0" output="Stereo" volume="0.800000" pan="-1.000000" pitch_over_range="false" play_mode="normal" play_loop="no" play_reverse="no">
          <variation minveloc="0" maxveloc="127" sample="/home/jeaneudes/OrageOTournage/ManytubasTriVisio/Samples/Common/trijc_out_elastic.flac" sampleRelative="../../../Samples/Common/trijc_out_elastic.flac"/>
        </instrument>
        <instrument name="trijc_io" minnote="60" maxnote="60" rootnote="60" rootnotefine="0.000000" channel="1" cut="-1" polyphony="0" output="Stereo" volume="0.500000" pan="-1.000000" pitch_over_range="true" play_mode="normal" play_loop="yes" play_reverse="no">
          <variation minveloc="0" maxveloc="127" sample="/home/jeaneudes/OrageOTournage/ManytubasTriVisio/Samples/Common/trijc_io.flac" sampleRelative="../../../Samples/Common/trijc_io.flac"/>
        </instrument>
        <instrument name="aspi" minnote="60" maxnote="60" rootnote="60" rootnotefine="0.000000" channel="1" cut="-1" polyphony="0" output="Stereo" volume="1.000000" pan="-1.000000" pitch_over_range="false" play_mode="normal" play_loop="no" play_reverse="no">
          <variation minveloc="0" maxveloc="127" sample="/home/jeaneudes/OrageOTournage/ManytubasTriVisio/Samples/Common/aspi.flac" sampleRelative="../../../Samples/Common/aspi.flac"/>
        </instrument>
        <instrument name="trijc_aimant" minnote="60" maxnote="60" rootnote="60" rootnotefine="0.000000" channel="1" cut="-1" polyphony="0" output="Stereo" volume="1.000000" pan="-1.000000" pitch_over_range="true" play_mode="normal" play_loop="no" play_reverse="no">
          <variation minveloc="0" maxveloc="127" sample="/home/jeaneudes/OrageOTournage/ManytubasTriVisio/Samples/Common/trijc_aimant.flac" sampleRelative="../../../Samples/Common/trijc_aimant.flac"/>
        </instrument>
        <instrument name="trijc_compas" minnote="60" maxnote="60" rootnote="60" rootnotefine="0.000000" channel="1" cut="-1" polyphony="0" output="Stereo" volume="0.500000" pan="-1.000000" pitch_over_range="true" play_mode="normal" play_loop="no" play_reverse="no">
          <variation minveloc="0" maxveloc="127" sample="/home/jeaneudes/OrageOTournage/ManytubasTriVisio/Samples/Common/trijc_compas.flac" sampleRelative="../../../Samples/Common/trijc_compas.flac"/>
        </instrument>
        <instrument name="trijc_compas_long" minnote="60" maxnote="60" rootnote="60" rootnotefine="0.000000" channel="1" cut="-1" polyphony="0" output="Stereo" volume="0.100000" pan="-1.000000" pitch_over_range="true" play_mode="normal" play_loop="yes" play_reverse="no">
          <variation minveloc="0" maxveloc="127" sample="/home/jeaneudes/OrageOTournage/ManytubasTriVisio/Samples/Common/trijc_compas_long.flac" sampleRelative="../../../Samples/Common/trijc_compas_long.flac"/>
        </instrument>
        <instrument name="trijc_lustre_in" minnote="60" maxnote="60" rootnote="60" rootnotefine="0.000000" channel="1" cut="-1" polyphony="0" output="Stereo" volume="0.050000" pan="-1.000000" pitch_over_range="false" play_mode="normal" play_loop="no" play_reverse="no">
          <variation minveloc="0" maxveloc="127" sample="/home/jeaneudes/OrageOTournage/ManytubasTriVisio/Samples/Common/trijc_lustre_in.flac" sampleRelative="../../../Samples/Common/trijc_lustre_in.flac"/>
        </instrument>
        <instrument name="trijc_lustre_middle" minnote="60" maxnote="60" rootnote="60" rootnotefine="0.000000" channel="1" cut="-1" polyphony="0" output="Stereo" volume="0.050000" pan="-1.000000" pitch_over_range="false" play_mode="normal" play_loop="yes" play_reverse="no">
          <variation minveloc="0" maxveloc="127" sample="/home/jeaneudes/OrageOTournage/ManytubasTriVisio/Samples/Common/trijc_lustre_middle.flac" sampleRelative="../../../Samples/Common/trijc_lustre_middle.flac"/>
        </instrument>
        <instrument name="trijc_lustre_out" minnote="60" maxnote="60" rootnote="60" rootnotefine="0.000000" channel="1" cut="-1" polyphony="0" output="Stereo" volume="0.050000" pan="-1.000000" pitch_over_range="false" play_mode="normal" play_loop="no" play_reverse="no">
          <variation minveloc="0" maxveloc="127" sample="/home/jeaneudes/OrageOTournage/ManytubasTriVisio/Samples/Common/trijc_lustre_out.flac" sampleRelative="../../../Samples/Common/trijc_lustre_out.flac"/>
        </instrument>
        <instrument name="batohacker_move_arrivee" minnote="60" maxnote="60" rootnote="60" rootnotefine="0.000000" channel="1" cut="-1" polyphony="0" output="Stereo" volume="1.000000" pan="0.653061" pitch_over_range="false" play_mode="normal" play_loop="no" play_reverse="no">
          <variation minveloc="0" maxveloc="127" sample="/home/jeaneudes/OrageOTournage/ManytubasTriVisio/Samples/Common/batohacker_move_arrivee.flac" sampleRelative="../../../Samples/Common/batohacker_move_arrivee.flac"/>
        </instrument>
        <instrument name="batohacker_punch" minnote="60" maxnote="60" rootnote="60" rootnotefine="0.000000" channel="1" cut="-1" polyphony="0" output="Stereo" volume="1.000000" pan="0.653061" pitch_over_range="false" play_mode="normal" play_loop="no" play_reverse="no">
          <variation minveloc="0" maxveloc="127" sample="/home/jeaneudes/OrageOTournage/ManytubasTriVisio/Samples/Common/batohacker_punch.flac" sampleRelative="../../../Samples/Common/batohacker_punch.flac"/>
        </instrument>
        <instrument name="batohacker_plug" minnote="60" maxnote="60" rootnote="60" rootnotefine="0.000000" channel="1" cut="-1" polyphony="0" output="Stereo" volume="1.000000" pan="0.653061" pitch_over_range="true" play_mode="normal" play_loop="no" play_reverse="no">
          <variation minveloc="0" maxveloc="127" sample="/home/jeaneudes/OrageOTournage/ManytubasTriVisio/Samples/Common/batohacker_plug.flac" sampleRelative="../../../Samples/Common/batohacker_plug.flac"/>
        </instrument>
        <instrument name="batohacker_unplug" minnote="60" maxnote="60" rootnote="60" rootnotefine="0.000000" channel="1" cut="-1" polyphony="0" output="Stereo" volume="1.000000" pan="0.653061" pitch_over_range="true" play_mode="normal" play_loop="no" play_reverse="no">
          <variation minveloc="0" maxveloc="127" sample="/home/jeaneudes/OrageOTournage/ManytubasTriVisio/Samples/Common/batohacker_unplug.flac" sampleRelative="../../../Samples/Common/batohacker_unplug.flac"/>
        </instrument>
        <instrument name="batohacker_plug_pop" minnote="60" maxnote="60" rootnote="60" rootnotefine="0.000000" channel="1" cut="-1" polyphony="0" output="Stereo" volume="1.000000" pan="0.653061" pitch_over_range="false" play_mode="normal" play_loop="no" play_reverse="no">
          <variation minveloc="0" maxveloc="127" sample="/home/jeaneudes/OrageOTournage/ManytubasTriVisio/Samples/Common/batohacker_plug_pop.flac" sampleRelative="../../../Samples/Common/batohacker_plug_pop.flac"/>
        </instrument>
        <instrument name="batohacker_warp_in" minnote="60" maxnote="60" rootnote="60" rootnotefine="0.000000" channel="1" cut="-1" polyphony="0" output="Stereo" volume="1.000000" pan="0.653061" pitch_over_range="false" play_mode="normal" play_loop="no" play_reverse="no">
          <variation minveloc="0" maxveloc="127" sample="/home/jeaneudes/OrageOTournage/ManytubasTriVisio/Samples/Common/batohacker_warp_in.flac" sampleRelative="../../../Samples/Common/batohacker_warp_in.flac"/>
        </instrument>
        <instrument name="batohacker_warp_middle" minnote="60" maxnote="60" rootnote="60" rootnotefine="0.000000" channel="1" cut="-1" polyphony="0" output="Stereo" volume="1.000000" pan="0.653061" pitch_over_range="false" play_mode="normal" play_loop="yes" play_reverse="no">
          <variation minveloc="0" maxveloc="127" sample="/home/jeaneudes/OrageOTournage/ManytubasTriVisio/Samples/Common/batohacker_warp_middle.flac" sampleRelative="../../../Samples/Common/batohacker_warp_middle.flac"/>
        </instrument>
        <instrument name="batohacker_warp_out" minnote="60" maxnote="60" rootnote="60" rootnotefine="0.000000" channel="1" cut="-1" polyphony="0" output="Stereo" volume="1.000000" pan="0.653061" pitch_over_range="false" play_mode="normal" play_loop="no" play_reverse="no">
          <variation minveloc="0" maxveloc="127" sample="/home/jeaneudes/OrageOTournage/ManytubasTriVisio/Samples/Common/batohacker_warp_out.flac" sampleRelative="../../../Samples/Common/batohacker_warp_out.flac"/>
        </instrument>
        <instrument name="batohacker_debevier" minnote="60" maxnote="60" rootnote="60" rootnotefine="0.000000" channel="1" cut="-1" polyphony="0" output="Stereo" volume="1.000000" pan="0.653061" pitch_over_range="true" play_mode="normal" play_loop="no" play_reverse="no">
          <variation minveloc="0" maxveloc="127" sample="/home/jeaneudes/OrageOTournage/ManytubasTriVisio/Samples/Common/batohacker_debevier.flac" sampleRelative="../../../Samples/Common/batohacker_debevier.flac"/>
        </instrument>
        <instrument name="batohacker_film_stopped" minnote="60" maxnote="60" rootnote="60" rootnotefine="0.000000" channel="1" cut="-1" polyphony="0" output="Stereo" volume="0.500000" pan="1.000000" pitch_over_range="false" play_mode="normal" play_loop="yes" play_reverse="no">
          <variation minveloc="0" maxveloc="127" sample="/home/jeaneudes/OrageOTournage/ManytubasTriVisio/Samples/Common/batohacker_film_stopped.flac" sampleRelative="../../../Samples/Common/batohacker_film_stopped.flac"/>
        </instrument>
        <instrument name="batohacker_trp_io" minnote="60" maxnote="60" rootnote="60" rootnotefine="0.000000" channel="1" cut="-1" polyphony="0" output="Stereo" volume="1.000000" pan="0.653061" pitch_over_range="false" play_mode="normal" play_loop="no" play_reverse="no">
          <variation minveloc="0" maxveloc="127" sample="/home/jeaneudes/OrageOTournage/ManytubasTriVisio/Samples/Common/batohacker_trp_io.flac" sampleRelative="../../../Samples/Common/batohacker_trp_io.flac"/>
        </instrument>
        <instrument name="batohacker_swallow_out" minnote="60" maxnote="60" rootnote="60" rootnotefine="0.000000" channel="1" cut="-1" polyphony="0" output="Stereo" volume="0.250000" pan="0.653061" pitch_over_range="false" play_mode="normal" play_loop="yes" play_reverse="no">
          <variation minveloc="0" maxveloc="127" sample="/home/jeaneudes/OrageOTournage/ManytubasTriVisio/Samples/Common/batohacker_swallow_out.flac" sampleRelative="../../../Samples/Common/batohacker_swallow_out.flac"/>
        </instrument>
        <instrument name="batohacker_swallow" minnote="60" maxnote="60" rootnote="60" rootnotefine="0.000000" channel="1" cut="-1" polyphony="0" output="Stereo" volume="0.250000" pan="0.653061" pitch_over_range="false" play_mode="normal" play_loop="yes" play_reverse="no">
          <variation minveloc="0" maxveloc="127" sample="/home/jeaneudes/OrageOTournage/ManytubasTriVisio/Samples/Common/batohacker_swallow.flac" sampleRelative="../../../Samples/Common/batohacker_swallow.flac"/>
        </instrument>
        <instrument name="wings" minnote="60" maxnote="60" rootnote="60" rootnotefine="0.000000" channel="1" cut="-1" polyphony="0" output="Center" volume="0.080000" pan="0.000000" pitch_over_range="false" play_mode="normal" play_loop="yes" play_reverse="no">
          <variation minveloc="0" maxveloc="127" sample="/home/jeaneudes/OrageOTournage/ManytubasTriVisio/Samples/Common/wings.flac" sampleRelative="../../../Samples/Common/wings.flac"/>
        </instrument>
        <instrument name="tv_sound" minnote="60" maxnote="60" rootnote="60" rootnotefine="0.000000" channel="1" cut="-1" polyphony="0" output="Center" volume="0.020000" pan="0.000000" pitch_over_range="false" play_mode="normal" play_loop="yes" play_reverse="no">
          <variation minveloc="0" maxveloc="127" sample="/home/jeaneudes/OrageOTournage/ManytubasTriVisio/Samples/Common/tv_sound.flac" sampleRelative="../../../Samples/Common/tv_sound.flac"/>
        </instrument>
        <instrument name="bascule_ep" minnote="60" maxnote="60" rootnote="60" rootnotefine="0.000000" channel="1" cut="-1" polyphony="0" output="Stereo" volume="1.200000" pan="0.653061" pitch_over_range="true" play_mode="normal" play_loop="no" play_reverse="no">
          <variation minveloc="0" maxveloc="127" sample="/home/jeaneudes/OrageOTournage/ManytubasTriVisio/Samples/Common/bascule_ep.flac" sampleRelative="../../../Samples/Common/bascule_ep.flac"/>
        </instrument>
        <instrument name="courrier_ep" minnote="60" maxnote="60" rootnote="60" rootnotefine="0.000000" channel="1" cut="-1" polyphony="0" output="Stereo" volume="1.000000" pan="0.653061" pitch_over_range="true" play_mode="normal" play_loop="no" play_reverse="no">
          <variation minveloc="0" maxveloc="127" sample="/home/jeaneudes/OrageOTournage/ManytubasTriVisio/Samples/Common/courrier_ep.flac" sampleRelative="../../../Samples/Common/courrier_ep.flac"/>
        </instrument>
        <instrument name="alarm_ep" minnote="60" maxnote="60" rootnote="60" rootnotefine="0.000000" channel="1" cut="-1" polyphony="0" output="Stereo" volume="0.861111" pan="0.000000" pitch_over_range="true" play_mode="normal" play_loop="yes" play_reverse="no">
          <variation minveloc="0" maxveloc="127" sample="/home/jeaneudes/OrageOTournage/ManytubasTriVisio/Samples/Common/alarm_ep.flac" sampleRelative="../../../Samples/Common/alarm_ep.flac"/>
        </instrument>
        <instrument name="baffe_elan" minnote="60" maxnote="60" rootnote="60" rootnotefine="0.000000" channel="1" cut="-1" polyphony="0" output="Center" volume="1.000000" pan="0.000000" pitch_over_range="false" play_mode="normal" play_loop="no" play_reverse="no">
          <variation minveloc="0" maxveloc="127" sample="/home/jeaneudes/OrageOTournage/ManytubasTriVisio/Samples/Common/baffe_elan.flac" sampleRelative="../../../Samples/Common/baffe_elan.flac"/>
        </instrument>
        <instrument name="display_title" minnote="60" maxnote="60" rootnote="60" rootnotefine="0.000000" channel="1" cut="-1" polyphony="0" output="Center" volume="0.150000" pan="0.000000" pitch_over_range="false" play_mode="normal" play_loop="no" play_reverse="no">
          <variation minveloc="0" maxveloc="127" sample="/home/jeaneudes/OrageOTournage/ManytubasTriVisio/Samples/Common/display_title.flac" sampleRelative="../../../Samples/Common/display_title.flac"/>
        </instrument>
        <instrument name="arabesque" minnote="60" maxnote="60" rootnote="60" rootnotefine="0.000000" channel="1" cut="-1" polyphony="0" output="Center" volume="1.000000" pan="0.000000" pitch_over_range="false" play_mode="normal" play_loop="no" play_reverse="no">
          <variation minveloc="0" maxveloc="127" sample="/home/jeaneudes/OrageOTournage/ManytubasTriVisio/Samples/Common/arabesque.flac" sampleRelative="../../../Samples/Common/arabesque.flac"/>
        </instrument>
        <instrument name="gros_interrupteur" minnote="60" maxnote="60" rootnote="60" rootnotefine="0.000000" channel="1" cut="-1" polyphony="0" output="Center" volume="1.000000" pan="0.000000" pitch_over_range="false" play_mode="normal" play_loop="no" play_reverse="no">
          <variation minveloc="0" maxveloc="127" sample="/home/jeaneudes/OrageOTournage/ManytubasTriVisio/Samples/Common/gros_interrupteur.flac" sampleRelative="../../../Samples/Common/gros_interrupteur.flac"/>
        </instrument>
        <instrument name="paillasson_buzz" minnote="60" maxnote="60" rootnote="60" rootnotefine="0.000000" channel="1" cut="-1" polyphony="0" output="Center" volume="1.000000" pan="0.000000" pitch_over_range="false" play_mode="normal" play_loop="no" play_reverse="no">
          <variation minveloc="0" maxveloc="127" sample="/home/jeaneudes/OrageOTournage/ManytubasTriVisio/Samples/Common/paillasson_buzz.flac" sampleRelative="../../../Samples/Common/paillasson_buzz.flac"/>
        </instrument>
        <instrument name="explosion1" minnote="60" maxnote="60" rootnote="60" rootnotefine="0.000000" channel="1" cut="-1" polyphony="0" output="MultiDiff" volume="2.000000" pan="0.000000" pitch_over_range="false" play_mode="normal" play_loop="no" play_reverse="no">
          <variation minveloc="0" maxveloc="127" sample="/home/jeaneudes/OrageOTournage/ManytubasTriVisio/Samples/Common/explosion1.flac" sampleRelative="../../../Samples/Common/explosion1.flac"/>
        </instrument>
        <instrument name="m_ch1-2_organ" minnote="60" maxnote="60" rootnote="60" rootnotefine="0.000000" channel="1" cut="-1" polyphony="0" output="Stereo" volume="0.300000" pan="0.000000" pitch_over_range="false" play_mode="normal" play_loop="no" play_reverse="no">
          <variation minveloc="0" maxveloc="127" sample="/home/jeaneudes/OrageOTournage/ManytubasTriVisio/Samples/Chapitre1/m_ch1-2_organ.flac" sampleRelative="../../../Samples/Chapitre1/m_ch1-2_organ.flac"/>
        </instrument>
        <instrument name="m_ch1_jingle_jc" minnote="60" maxnote="60" rootnote="60" rootnotefine="0.000000" channel="1" cut="-1" polyphony="0" output="MultiDiff" volume="0.500000" pan="0.000000" pitch_over_range="false" play_mode="normal" play_loop="no" play_reverse="no">
          <variation minveloc="0" maxveloc="127" sample="/home/jeaneudes/OrageOTournage/ManytubasTriVisio/Samples/Chapitre1/m_ch1_jingle_jc.flac" sampleRelative="../../../Samples/Chapitre1/m_ch1_jingle_jc.flac"/>
        </instrument>
        <instrument name="f_ch1-15_boite_a_meuh" minnote="60" maxnote="60" rootnote="60" rootnotefine="0.000000" channel="1" cut="-1" polyphony="0" output="Center" volume="0.500000" pan="0.000000" pitch_over_range="false" play_mode="normal" play_loop="no" play_reverse="no">
          <variation minveloc="0" maxveloc="127" sample="/home/jeaneudes/OrageOTournage/ManytubasTriVisio/Samples/Chapitre1/f_ch1-15_boite_a_meuh.flac" sampleRelative="../../../Samples/Chapitre1/f_ch1-15_boite_a_meuh.flac"/>
        </instrument>
        <instrument name="raspoutine_letter" minnote="60" maxnote="60" rootnote="60" rootnotefine="0.000000" channel="1" cut="-1" polyphony="0" output="Center" volume="1.000000" pan="0.000000" pitch_over_range="false" play_mode="normal" play_loop="no" play_reverse="no">
          <variation minveloc="0" maxveloc="127" sample="/home/jeaneudes/OrageOTournage/ManytubasTriVisio/Samples/Chapitre1/raspoutine_letter.flac" sampleRelative="../../../Samples/Chapitre1/raspoutine_letter.flac"/>
        </instrument>
        <instrument name="entracte_tombe" minnote="60" maxnote="60" rootnote="60" rootnotefine="0.000000" channel="1" cut="-1" polyphony="0" output="MultiDiff" volume="1.000000" pan="0.000000" pitch_over_range="false" play_mode="normal" play_loop="no" play_reverse="no">
          <variation minveloc="0" maxveloc="127" sample="/home/jeaneudes/OrageOTournage/ManytubasTriVisio/Samples/Chapitre2/entracte_tombe.flac" sampleRelative="../../../Samples/Chapitre2/entracte_tombe.flac"/>
        </instrument>
        <instrument name="jmjarret_entracte" minnote="60" maxnote="60" rootnote="60" rootnotefine="0.000000" channel="1" cut="-1" polyphony="0" output="Stereo" volume="1.000000" pan="0.000000" pitch_over_range="false" play_mode="normal" play_loop="yes" play_reverse="no">
          <variation minveloc="0" maxveloc="127" sample="/home/jeaneudes/OrageOTournage/ManytubasTriVisio/Samples/Chapitre2/jmjarret_entracte.flac" sampleRelative="../../../Samples/Chapitre2/jmjarret_entracte.flac"/>
        </instrument>
        <instrument name="f_ch2-9_klaxon" minnote="60" maxnote="60" rootnote="60" rootnotefine="0.000000" channel="1" cut="-1" polyphony="0" output="Center" volume="1.000000" pan="0.000000" pitch_over_range="false" play_mode="normal" play_loop="no" play_reverse="no">
          <variation minveloc="0" maxveloc="127" sample="/home/jeaneudes/OrageOTournage/ManytubasTriVisio/Samples/Chapitre2/f_ch2-9_klaxon.flac" sampleRelative="../../../Samples/Chapitre2/f_ch2-9_klaxon.flac"/>
        </instrument>
        <instrument name="f_ch2_feu_artifice" minnote="60" maxnote="60" rootnote="60" rootnotefine="0.000000" channel="1" cut="-1" polyphony="0" output="Stereo" volume="1.000000" pan="0.000000" pitch_over_range="false" play_mode="normal" play_loop="no" play_reverse="no">
          <variation minveloc="0" maxveloc="127" sample="/home/jeaneudes/OrageOTournage/ManytubasTriVisio/Samples/Chapitre2/f_ch2_feu_artifice.flac" sampleRelative="../../../Samples/Chapitre2/f_ch2_feu_artifice.flac"/>
        </instrument>
        <instrument name="f_ch2-9_crash_dede" minnote="60" maxnote="60" rootnote="60" rootnotefine="0.000000" channel="1" cut="-1" polyphony="0" output="MultiDiff" volume="1.000000" pan="0.000000" pitch_over_range="false" play_mode="normal" play_loop="no" play_reverse="no">
          <variation minveloc="0" maxveloc="127" sample="/home/jeaneudes/OrageOTournage/ManytubasTriVisio/Samples/Chapitre2/f_ch2-9_crash_dede.flac" sampleRelative="../../../Samples/Chapitre2/f_ch2-9_crash_dede.flac"/>
        </instrument>
        <instrument name="f_ch2-9_decollage_enedys" minnote="60" maxnote="60" rootnote="60" rootnotefine="0.000000" channel="1" cut="-1" polyphony="0" output="Center" volume="1.000000" pan="0.000000" pitch_over_range="false" play_mode="normal" play_loop="no" play_reverse="no">
          <variation minveloc="0" maxveloc="127" sample="/home/jeaneudes/OrageOTournage/ManytubasTriVisio/Samples/Chapitre2/f_ch2-9_decollage_enedys.flac" sampleRelative="../../../Samples/Chapitre2/f_ch2-9_decollage_enedys.flac"/>
        </instrument>
        <instrument name="f_ch3_feu_cerceau" minnote="60" maxnote="60" rootnote="60" rootnotefine="0.000000" channel="1" cut="-1" polyphony="0" output="Center" volume="1.000000" pan="0.000000" pitch_over_range="false" play_mode="normal" play_loop="no" play_reverse="no">
          <variation minveloc="0" maxveloc="127" sample="/home/jeaneudes/OrageOTournage/ManytubasTriVisio/Samples/Chapitre3/f_ch3_feu_cerceau.flac" sampleRelative="../../../Samples/Chapitre3/f_ch3_feu_cerceau.flac"/>
        </instrument>
        <instrument name="f_ch3_chute_crepe" minnote="60" maxnote="60" rootnote="60" rootnotefine="0.000000" channel="1" cut="-1" polyphony="0" output="Center" volume="2.000000" pan="0.000000" pitch_over_range="false" play_mode="normal" play_loop="no" play_reverse="no">
          <variation minveloc="0" maxveloc="127" sample="/home/jeaneudes/OrageOTournage/ManytubasTriVisio/Samples/Chapitre3/f_ch3_chute_crepe.flac" sampleRelative="../../../Samples/Chapitre3/f_ch3_chute_crepe.flac"/>
        </instrument>
        <instrument name="f_ch3_degagement_crepe" minnote="60" maxnote="60" rootnote="60" rootnotefine="0.000000" channel="1" cut="-1" polyphony="0" output="Center" volume="1.000000" pan="0.000000" pitch_over_range="false" play_mode="normal" play_loop="no" play_reverse="no">
          <variation minveloc="0" maxveloc="127" sample="/home/jeaneudes/OrageOTournage/ManytubasTriVisio/Samples/Chapitre3/f_ch3_degagement_crepe.flac" sampleRelative="../../../Samples/Chapitre3/f_ch3_degagement_crepe.flac"/>
        </instrument>
        <instrument name="f_ch3_degagement_paillasson" minnote="60" maxnote="60" rootnote="60" rootnotefine="0.000000" channel="1" cut="-1" polyphony="0" output="Center" volume="1.000000" pan="0.000000" pitch_over_range="false" play_mode="normal" play_loop="no" play_reverse="no">
          <variation minveloc="0" maxveloc="127" sample="/home/jeaneudes/OrageOTournage/ManytubasTriVisio/Samples/Chapitre3/f_ch3_degagement_paillasson.flac" sampleRelative="../../../Samples/Chapitre3/f_ch3_degagement_paillasson.flac"/>
        </instrument>
        <instrument name="f_ch3_crash_sr" minnote="60" maxnote="60" rootnote="60" rootnotefine="0.000000" channel="1" cut="-1" polyphony="0" output="Center" volume="1.000000" pan="0.000000" pitch_over_range="false" play_mode="normal" play_loop="no" play_reverse="no">
          <variation minveloc="0" maxveloc="127" sample="/home/jeaneudes/OrageOTournage/ManytubasTriVisio/Samples/Chapitre3/f_ch3_crash_sr.flac" sampleRelative="../../../Samples/Chapitre3/f_ch3_crash_sr.flac"/>
        </instrument>
        <instrument name="f_ch4-14_megaphone" minnote="60" maxnote="60" rootnote="60" rootnotefine="0.000000" channel="1" cut="-1" polyphony="0" output="Center" volume="2.500000" pan="0.000000" pitch_over_range="false" play_mode="normal" play_loop="no" play_reverse="no">
          <variation minveloc="0" maxveloc="127" sample="/home/jeaneudes/OrageOTournage/ManytubasTriVisio/Samples/Chapitre4/f_ch4-14_megaphone.flac" sampleRelative="../../../Samples/Chapitre4/f_ch4-14_megaphone.flac"/>
        </instrument>
        <instrument name="f_ch4-14_accordion" minnote="60" maxnote="60" rootnote="60" rootnotefine="0.000000" channel="1" cut="-1" polyphony="0" output="Center" volume="1.000000" pan="0.000000" pitch_over_range="false" play_mode="normal" play_loop="no" play_reverse="no">
          <variation minveloc="0" maxveloc="127" sample="/home/jeaneudes/OrageOTournage/ManytubasTriVisio/Samples/Chapitre4/f_ch4-14_accordion.flac" sampleRelative="../../../Samples/Chapitre4/f_ch4-14_accordion.flac"/>
        </instrument>
        <instrument name="f_ch4-14_xrays" minnote="60" maxnote="60" rootnote="60" rootnotefine="0.000000" channel="1" cut="-1" polyphony="0" output="Center" volume="1.000000" pan="0.000000" pitch_over_range="false" play_mode="normal" play_loop="no" play_reverse="no">
          <variation minveloc="0" maxveloc="127" sample="/home/jeaneudes/OrageOTournage/ManytubasTriVisio/Samples/Chapitre4/f_ch4-14_xrays.flac" sampleRelative="../../../Samples/Chapitre4/f_ch4-14_xrays.flac"/>
        </instrument>
        <instrument name="f_ch4-14_xrays_switch" minnote="60" maxnote="60" rootnote="60" rootnotefine="0.000000" channel="1" cut="-1" polyphony="0" output="Center" volume="1.000000" pan="0.000000" pitch_over_range="false" play_mode="normal" play_loop="no" play_reverse="no">
          <variation minveloc="0" maxveloc="127" sample="/home/jeaneudes/OrageOTournage/ManytubasTriVisio/Samples/Chapitre4/f_ch4-14_xrays_switch.flac" sampleRelative="../../../Samples/Chapitre4/f_ch4-14_xrays_switch.flac"/>
        </instrument>
        <instrument name="f_ch4-21_pause" minnote="60" maxnote="60" rootnote="60" rootnotefine="0.000000" channel="1" cut="-1" polyphony="0" output="Center" volume="1.000000" pan="0.000000" pitch_over_range="false" play_mode="normal" play_loop="no" play_reverse="no">
          <variation minveloc="0" maxveloc="127" sample="/home/jeaneudes/OrageOTournage/ManytubasTriVisio/Samples/Chapitre4/f_ch4-21_pause.flac" sampleRelative="../../../Samples/Chapitre4/f_ch4-21_pause.flac"/>
        </instrument>
        <instrument name="f_ch4-22_fleche" minnote="60" maxnote="60" rootnote="60" rootnotefine="0.000000" channel="1" cut="-1" polyphony="0" output="Stereo" volume="0.800000" pan="0.591837" pitch_over_range="false" play_mode="normal" play_loop="no" play_reverse="no">
          <variation minveloc="0" maxveloc="127" sample="/home/jeaneudes/OrageOTournage/ManytubasTriVisio/Samples/Chapitre4/f_ch4-22_fleche.flac" sampleRelative="../../../Samples/Chapitre4/f_ch4-22_fleche.flac"/>
        </instrument>
        <instrument name="f_ch4-22_snares" minnote="60" maxnote="60" rootnote="60" rootnotefine="0.000000" channel="1" cut="-1" polyphony="0" output="Stereo" volume="1.000000" pan="0.000000" pitch_over_range="false" play_mode="normal" play_loop="yes" play_reverse="no">
          <variation minveloc="0" maxveloc="127" sample="/home/jeaneudes/OrageOTournage/ManytubasTriVisio/Samples/Chapitre4/f_ch4-22_snares.flac" sampleRelative="../../../Samples/Chapitre4/f_ch4-22_snares.flac"/>
        </instrument>
        <instrument name="f_ch4-22_snares_out" minnote="60" maxnote="60" rootnote="60" rootnotefine="0.000000" channel="1" cut="-1" polyphony="0" output="Stereo" volume="1.000000" pan="0.000000" pitch_over_range="false" play_mode="normal" play_loop="no" play_reverse="no">
          <variation minveloc="0" maxveloc="127" sample="/home/jeaneudes/OrageOTournage/ManytubasTriVisio/Samples/Chapitre4/f_ch4-22_snares_out.flac" sampleRelative="../../../Samples/Chapitre4/f_ch4-22_snares_out.flac"/>
        </instrument>
        <instrument name="f_ch4_pop" minnote="60" maxnote="60" rootnote="60" rootnotefine="0.000000" channel="1" cut="-1" polyphony="0" output="Stereo" volume="1.000000" pan="0.673469" pitch_over_range="false" play_mode="normal" play_loop="no" play_reverse="no">
          <variation minveloc="0" maxveloc="127" sample="/home/jeaneudes/OrageOTournage/ManytubasTriVisio/Samples/Chapitre4/f_ch4_pop.flac" sampleRelative="../../../Samples/Chapitre4/f_ch4_pop.flac"/>
        </instrument>
        <instrument name="f_ch4_enclume" minnote="60" maxnote="60" rootnote="60" rootnotefine="0.000000" channel="1" cut="-1" polyphony="0" output="Stereo" volume="1.000000" pan="0.632653" pitch_over_range="false" play_mode="normal" play_loop="no" play_reverse="no">
          <variation minveloc="0" maxveloc="127" sample="/home/jeaneudes/OrageOTournage/ManytubasTriVisio/Samples/Chapitre4/f_ch4_enclume.flac" sampleRelative="../../../Samples/Chapitre4/f_ch4_enclume.flac"/>
        </instrument>
        <instrument name="f_ch4_champi" minnote="60" maxnote="60" rootnote="60" rootnotefine="0.000000" channel="1" cut="-1" polyphony="0" output="Stereo" volume="1.000000" pan="0.653061" pitch_over_range="false" play_mode="normal" play_loop="no" play_reverse="no">
          <variation minveloc="0" maxveloc="127" sample="/home/jeaneudes/OrageOTournage/ManytubasTriVisio/Samples/Chapitre4/f_ch4_champi.flac" sampleRelative="../../../Samples/Chapitre4/f_ch4_champi.flac"/>
        </instrument>
        <instrument name="f_ch4_bouilloire_start" minnote="60" maxnote="60" rootnote="60" rootnotefine="0.000000" channel="1" cut="-1" polyphony="0" output="Stereo" volume="0.800000" pan="0.428571" pitch_over_range="false" play_mode="normal" play_loop="no" play_reverse="no">
          <variation minveloc="0" maxveloc="127" sample="/home/jeaneudes/OrageOTournage/ManytubasTriVisio/Samples/Chapitre4/f_ch4_bouilloire_start.flac" sampleRelative="../../../Samples/Chapitre4/f_ch4_bouilloire_start.flac"/>
        </instrument>
        <instrument name="f_ch4_bouilloire_middle" minnote="60" maxnote="60" rootnote="60" rootnotefine="0.000000" channel="1" cut="-1" polyphony="0" output="Stereo" volume="0.800000" pan="0.428571" pitch_over_range="false" play_mode="normal" play_loop="yes" play_reverse="no">
          <variation minveloc="0" maxveloc="127" sample="/home/jeaneudes/OrageOTournage/ManytubasTriVisio/Samples/Chapitre4/f_ch4_bouilloire_middle.flac" sampleRelative="../../../Samples/Chapitre4/f_ch4_bouilloire_middle.flac"/>
        </instrument>
        <instrument name="f_ch4_truck_beep" minnote="60" maxnote="60" rootnote="60" rootnotefine="0.000000" channel="1" cut="-1" polyphony="0" output="Stereo" volume="1.000000" pan="0.000000" pitch_over_range="false" play_mode="normal" play_loop="yes" play_reverse="no">
          <variation minveloc="0" maxveloc="127" sample="/home/jeaneudes/OrageOTournage/ManytubasTriVisio/Samples/Chapitre4/f_ch4_truck_beep.flac" sampleRelative="../../../Samples/Chapitre4/f_ch4_truck_beep.flac"/>
        </instrument>
        <instrument name="f_ch4_truck_open" minnote="60" maxnote="60" rootnote="60" rootnotefine="0.000000" channel="1" cut="-1" polyphony="0" output="Stereo" volume="1.000000" pan="0.571429" pitch_over_range="false" play_mode="normal" play_loop="no" play_reverse="no">
          <variation minveloc="0" maxveloc="127" sample="/home/jeaneudes/OrageOTournage/ManytubasTriVisio/Samples/Chapitre4/f_ch4_truck_open.flac" sampleRelative="../../../Samples/Chapitre4/f_ch4_truck_open.flac"/>
        </instrument>
        <instrument name="f_ch4_truck_empty" minnote="60" maxnote="60" rootnote="60" rootnotefine="0.000000" channel="1" cut="-1" polyphony="0" output="Stereo" volume="1.000000" pan="0.571429" pitch_over_range="false" play_mode="normal" play_loop="no" play_reverse="no">
          <variation minveloc="0" maxveloc="127" sample="/home/jeaneudes/OrageOTournage/ManytubasTriVisio/Samples/Chapitre4/f_ch4_truck_empty.flac" sampleRelative="../../../Samples/Chapitre4/f_ch4_truck_empty.flac"/>
        </instrument>
        <instrument name="f_ch5_bouilloire_stop" minnote="60" maxnote="60" rootnote="60" rootnotefine="0.000000" channel="1" cut="-1" polyphony="0" output="Stereo" volume="0.800000" pan="0.469388" pitch_over_range="false" play_mode="normal" play_loop="no" play_reverse="no">
          <variation minveloc="0" maxveloc="127" sample="/home/jeaneudes/OrageOTournage/ManytubasTriVisio/Samples/Chapitre5/f_ch5_bouilloire_stop.flac" sampleRelative="../../../Samples/Chapitre5/f_ch5_bouilloire_stop.flac"/>
        </instrument>
        <instrument name="f_ch5_explosion_grenade" minnote="60" maxnote="60" rootnote="60" rootnotefine="0.000000" channel="1" cut="-1" polyphony="0" output="Center" volume="2.000000" pan="0.000000" pitch_over_range="false" play_mode="normal" play_loop="no" play_reverse="no">
          <variation minveloc="0" maxveloc="127" sample="/home/jeaneudes/OrageOTournage/ManytubasTriVisio/Samples/Chapitre5/f_ch5_explosion_grenade.flac" sampleRelative="../../../Samples/Chapitre5/f_ch5_explosion_grenade.flac"/>
        </instrument>
        <instrument name="f_ch5_demarrage_tractobotte" minnote="60" maxnote="60" rootnote="60" rootnotefine="0.000000" channel="1" cut="-1" polyphony="0" output="Center" volume="0.250000" pan="0.000000" pitch_over_range="false" play_mode="normal" play_loop="no" play_reverse="no">
          <variation minveloc="0" maxveloc="127" sample="/home/jeaneudes/OrageOTournage/ManytubasTriVisio/Samples/Chapitre5/f_ch5_demarrage_tractobotte.flac" sampleRelative="../../../Samples/Chapitre5/f_ch5_demarrage_tractobotte.flac"/>
        </instrument>
        <instrument name="f_ch5_acceleration_tractobotte" minnote="60" maxnote="60" rootnote="60" rootnotefine="0.000000" channel="1" cut="-1" polyphony="0" output="Center" volume="0.250000" pan="0.000000" pitch_over_range="false" play_mode="normal" play_loop="no" play_reverse="no">
          <variation minveloc="0" maxveloc="127" sample="/home/jeaneudes/OrageOTournage/ManytubasTriVisio/Samples/Chapitre5/f_ch5_acceleration_tractobotte.flac" sampleRelative="../../../Samples/Chapitre5/f_ch5_acceleration_tractobotte.flac"/>
        </instrument>
        <instrument name="f_ch5_moteur_tractobotte" minnote="60" maxnote="60" rootnote="60" rootnotefine="0.000000" channel="1" cut="-1" polyphony="0" output="Center" volume="0.250000" pan="0.000000" pitch_over_range="false" play_mode="normal" play_loop="yes" play_reverse="no">
          <variation minveloc="0" maxveloc="127" sample="/home/jeaneudes/OrageOTournage/ManytubasTriVisio/Samples/Chapitre5/f_ch5_moteur_tractobotte.flac" sampleRelative="../../../Samples/Chapitre5/f_ch5_moteur_tractobotte.flac"/>
        </instrument>
        <instrument name="f_ch5_sautfinal_tractobotte" minnote="60" maxnote="60" rootnote="60" rootnotefine="0.000000" channel="1" cut="-1" polyphony="0" output="MultiDiff" volume="1.000000" pan="0.000000" pitch_over_range="false" play_mode="normal" play_loop="no" play_reverse="no">
          <variation minveloc="0" maxveloc="127" sample="/home/jeaneudes/OrageOTournage/ManytubasTriVisio/Samples/Chapitre5/f_ch5_sautfinal_tractobotte.flac" sampleRelative="../../../Samples/Chapitre5/f_ch5_sautfinal_tractobotte.flac"/>
        </instrument>
        <instrument name="f_ch5_saut_tractobotte" minnote="60" maxnote="60" rootnote="60" rootnotefine="0.000000" channel="1" cut="-1" polyphony="0" output="Center" volume="1.000000" pan="0.000000" pitch_over_range="false" play_mode="normal" play_loop="no" play_reverse="no">
          <variation minveloc="0" maxveloc="127" sample="/home/jeaneudes/OrageOTournage/ManytubasTriVisio/Samples/Chapitre5/f_ch5_saut_tractobotte.flac" sampleRelative="../../../Samples/Chapitre5/f_ch5_saut_tractobotte.flac"/>
        </instrument>
        <instrument name="f_ch5_smashing_tractobotte" minnote="60" maxnote="60" rootnote="60" rootnotefine="0.000000" channel="1" cut="-1" polyphony="0" output="Center" volume="1.000000" pan="0.000000" pitch_over_range="false" play_mode="normal" play_loop="no" play_reverse="no">
          <variation minveloc="0" maxveloc="127" sample="/home/jeaneudes/OrageOTournage/ManytubasTriVisio/Samples/Chapitre5/f_ch5_smashing_tractobotte.flac" sampleRelative="../../../Samples/Chapitre5/f_ch5_smashing_tractobotte.flac"/>
        </instrument>
        <instrument name="f_ch5_smashed_tractobotte" minnote="60" maxnote="60" rootnote="60" rootnotefine="0.000000" channel="1" cut="-1" polyphony="0" output="Center" volume="1.000000" pan="0.000000" pitch_over_range="false" play_mode="normal" play_loop="no" play_reverse="no">
          <variation minveloc="0" maxveloc="127" sample="/home/jeaneudes/OrageOTournage/ManytubasTriVisio/Samples/Chapitre5/f_ch5_smashed_tractobotte.flac" sampleRelative="../../../Samples/Chapitre5/f_ch5_smashed_tractobotte.flac"/>
        </instrument>
        <instrument name="f_ch5_explosion_lune" minnote="60" maxnote="60" rootnote="60" rootnotefine="0.000000" channel="1" cut="-1" polyphony="0" output="MultiDiff" volume="1.500000" pan="0.000000" pitch_over_range="false" play_mode="normal" play_loop="no" play_reverse="no">
          <variation minveloc="0" maxveloc="127" sample="/home/jeaneudes/OrageOTournage/ManytubasTriVisio/Samples/Chapitre5/f_ch5_explosion_lune.flac" sampleRelative="../../../Samples/Chapitre5/f_ch5_explosion_lune.flac"/>
        </instrument>
        <instrument name="f_ch5_crashfinal" minnote="60" maxnote="60" rootnote="60" rootnotefine="0.000000" channel="1" cut="-1" polyphony="0" output="MultiDiff" volume="2.000000" pan="0.000000" pitch_over_range="false" play_mode="normal" play_loop="no" play_reverse="no">
          <variation minveloc="0" maxveloc="127" sample="/home/jeaneudes/OrageOTournage/ManytubasTriVisio/Samples/Chapitre5/f_ch5_crashfinal.flac" sampleRelative="../../../Samples/Chapitre5/f_ch5_crashfinal.flac"/>
        </instrument>
        <instrument name="f_ch5_crashfinal2" minnote="60" maxnote="60" rootnote="60" rootnotefine="0.000000" channel="1" cut="-1" polyphony="0" output="MultiDiff" volume="1.500000" pan="0.000000" pitch_over_range="false" play_mode="normal" play_loop="no" play_reverse="no">
          <variation minveloc="0" maxveloc="127" sample="/home/jeaneudes/OrageOTournage/ManytubasTriVisio/Samples/Chapitre5/f_ch5_crashfinal2.flac" sampleRelative="../../../Samples/Chapitre5/f_ch5_crashfinal2.flac"/>
        </instrument>
        <instrument name="f_ch5_telephone" minnote="60" maxnote="60" rootnote="60" rootnotefine="0.000000" channel="1" cut="-1" polyphony="0" output="Stereo" volume="1.000000" pan="-1.000000" pitch_over_range="false" play_mode="normal" play_loop="yes" play_reverse="no">
          <variation minveloc="0" maxveloc="127" sample="/home/jeaneudes/OrageOTournage/ManytubasTriVisio/Samples/Chapitre5/f_ch5_telephone.flac" sampleRelative="../../../Samples/Chapitre5/f_ch5_telephone.flac"/>
        </instrument>
        <instrument name="symphonie_a" minnote="60" maxnote="60" rootnote="60" rootnotefine="0.000000" channel="1" cut="-1" polyphony="0" output="Stereo" volume="1.000000" pan="0.000000" pitch_over_range="false" play_mode="normal" play_loop="no" play_reverse="no">
          <variation minveloc="0" maxveloc="127" sample="/home/jeaneudes/OrageOTournage/ManytubasTriVisio/Samples/Chapitre5/symphonie_a.flac" sampleRelative="../../../Samples/Chapitre5/symphonie_a.flac"/>
        </instrument>
        <instrument name="symphonie_b" minnote="60" maxnote="60" rootnote="60" rootnotefine="0.000000" channel="1" cut="-1" polyphony="0" output="Stereo" volume="1.000000" pan="0.000000" pitch_over_range="false" play_mode="normal" play_loop="no" play_reverse="no">
          <variation minveloc="0" maxveloc="127" sample="/home/jeaneudes/OrageOTournage/ManytubasTriVisio/Samples/Chapitre5/symphonie_b.flac" sampleRelative="../../../Samples/Chapitre5/symphonie_b.flac"/>
        </instrument>
        <instrument name="symphonie_c" minnote="60" maxnote="60" rootnote="60" rootnotefine="0.000000" channel="1" cut="-1" polyphony="0" output="Stereo" volume="1.000000" pan="0.000000" pitch_over_range="false" play_mode="normal" play_loop="no" play_reverse="no">
          <variation minveloc="0" maxveloc="127" sample="/home/jeaneudes/OrageOTournage/ManytubasTriVisio/Samples/Chapitre5/symphonie_c.flac" sampleRelative="../../../Samples/Chapitre5/symphonie_c.flac"/>
        </instrument>
        <instrument name="symphonie_flutes_didj_bottes" minnote="60" maxnote="60" rootnote="60" rootnotefine="0.000000" channel="1" cut="-1" polyphony="0" output="Stereo" volume="1.000000" pan="0.000000" pitch_over_range="false" play_mode="normal" play_loop="no" play_reverse="no">
          <variation minveloc="0" maxveloc="127" sample="/home/jeaneudes/OrageOTournage/ManytubasTriVisio/Samples/Chapitre5/symphonie_flutes_didj_bottes.flac" sampleRelative="../../../Samples/Chapitre5/symphonie_flutes_didj_bottes.flac"/>
        </instrument>
        <instrument name="symphonie_full" minnote="60" maxnote="60" rootnote="60" rootnotefine="0.000000" channel="1" cut="-1" polyphony="0" output="Stereo" volume="1.000000" pan="0.000000" pitch_over_range="false" play_mode="normal" play_loop="no" play_reverse="no">
          <variation minveloc="0" maxveloc="127" sample="/home/jeaneudes/OrageOTournage/ManytubasTriVisio/Samples/Chapitre5/symphonie_full.flac" sampleRelative="../../../Samples/Chapitre5/symphonie_full.flac"/>
        </instrument>
        <instrument name="symphonie_intro" minnote="60" maxnote="60" rootnote="60" rootnotefine="0.000000" channel="1" cut="-1" polyphony="0" output="Stereo" volume="1.000000" pan="0.000000" pitch_over_range="false" play_mode="normal" play_loop="no" play_reverse="no">
          <variation minveloc="0" maxveloc="127" sample="/home/jeaneudes/OrageOTournage/ManytubasTriVisio/Samples/Chapitre5/symphonie_intro.flac" sampleRelative="../../../Samples/Chapitre5/symphonie_intro.flac"/>
        </instrument>
        <instrument name="symphonie_piano_bottes" minnote="60" maxnote="60" rootnote="60" rootnotefine="0.000000" channel="1" cut="-1" polyphony="0" output="Stereo" volume="1.000000" pan="0.000000" pitch_over_range="false" play_mode="normal" play_loop="no" play_reverse="no">
          <variation minveloc="0" maxveloc="127" sample="/home/jeaneudes/OrageOTournage/ManytubasTriVisio/Samples/Chapitre5/symphonie_piano_bottes.flac" sampleRelative="../../../Samples/Chapitre5/symphonie_piano_bottes.flac"/>
        </instrument>
        <instrument name="symphonie_pianos" minnote="60" maxnote="60" rootnote="60" rootnotefine="0.000000" channel="1" cut="-1" polyphony="0" output="Stereo" volume="0.300000" pan="0.000000" pitch_over_range="false" play_mode="normal" play_loop="no" play_reverse="no">
          <variation minveloc="0" maxveloc="127" sample="/home/jeaneudes/OrageOTournage/ManytubasTriVisio/Samples/Chapitre5/symphonie_pianos.flac" sampleRelative="../../../Samples/Chapitre5/symphonie_pianos.flac"/>
        </instrument>
        <instrument name="symphonie_soufflants_bottes" minnote="60" maxnote="60" rootnote="60" rootnotefine="0.000000" channel="1" cut="-1" polyphony="0" output="Stereo" volume="1.000000" pan="0.000000" pitch_over_range="false" play_mode="normal" play_loop="no" play_reverse="no">
          <variation minveloc="0" maxveloc="127" sample="/home/jeaneudes/OrageOTournage/ManytubasTriVisio/Samples/Chapitre5/symphonie_soufflants_bottes.flac" sampleRelative="../../../Samples/Chapitre5/symphonie_soufflants_bottes.flac"/>
        </instrument>
        <instrument name="symphonie_violons" minnote="60" maxnote="60" rootnote="60" rootnotefine="0.000000" channel="1" cut="-1" polyphony="0" output="Stereo" volume="1.000000" pan="0.000000" pitch_over_range="false" play_mode="normal" play_loop="no" play_reverse="no">
          <variation minveloc="0" maxveloc="127" sample="/home/jeaneudes/OrageOTournage/ManytubasTriVisio/Samples/Chapitre5/symphonie_violons.flac" sampleRelative="../../../Samples/Chapitre5/symphonie_violons.flac"/>
        </instrument>
        <instrument name="symphonie_violons_bottes" minnote="60" maxnote="60" rootnote="60" rootnotefine="0.000000" channel="1" cut="-1" polyphony="0" output="Stereo" volume="1.000000" pan="0.000000" pitch_over_range="false" play_mode="normal" play_loop="no" play_reverse="no">
          <variation minveloc="0" maxveloc="127" sample="/home/jeaneudes/OrageOTournage/ManytubasTriVisio/Samples/Chapitre5/symphonie_violons_bottes.flac" sampleRelative="../../../Samples/Chapitre5/symphonie_violons_bottes.flac"/>
        </instrument>
        <instrument name="symphonie_violons_cb_bottes" minnote="60" maxnote="60" rootnote="60" rootnotefine="0.000000" channel="1" cut="-1" polyphony="0" output="Stereo" volume="1.000000" pan="0.000000" pitch_over_range="false" play_mode="normal" play_loop="no" play_reverse="no">
          <variation minveloc="0" maxveloc="127" sample="/home/jeaneudes/OrageOTournage/ManytubasTriVisio/Samples/Chapitre5/symphonie_violons_cb_bottes.flac" sampleRelative="../../../Samples/Chapitre5/symphonie_violons_cb_bottes.flac"/>
        </instrument>
        <instrument name="symphonie_soufflants_moinsdidj_bottes" minnote="60" maxnote="60" rootnote="60" rootnotefine="0.000000" channel="1" cut="-1" polyphony="0" output="Stereo" volume="1.000000" pan="0.000000" pitch_over_range="false" play_mode="normal" play_loop="no" play_reverse="no">
          <variation minveloc="0" maxveloc="127" sample="/home/jeaneudes/OrageOTournage/ManytubasTriVisio/Samples/Chapitre5/symphonie_soufflants_moinsdidj_bottes.flac" sampleRelative="../../../Samples/Chapitre5/symphonie_soufflants_moinsdidj_bottes.flac"/>
        </instrument>
        <instrument name="symphonie_flutes_didj_percs_bottes" minnote="60" maxnote="60" rootnote="60" rootnotefine="0.000000" channel="1" cut="-1" polyphony="0" output="Stereo" volume="1.000000" pan="0.000000" pitch_over_range="false" play_mode="normal" play_loop="no" play_reverse="no">
          <variation minveloc="0" maxveloc="127" sample="/home/jeaneudes/OrageOTournage/ManytubasTriVisio/Samples/Chapitre5/symphonie_flutes_didj_percs_bottes.flac" sampleRelative="../../../Samples/Chapitre5/symphonie_flutes_didj_percs_bottes.flac"/>
        </instrument>
        <instrument name="symphonie_x" minnote="60" maxnote="60" rootnote="60" rootnotefine="0.000000" channel="1" cut="-1" polyphony="0" output="Stereo" volume="1.000000" pan="0.000000" pitch_over_range="false" play_mode="normal" play_loop="no" play_reverse="no">
          <variation minveloc="0" maxveloc="127" sample="/home/jeaneudes/OrageOTournage/ManytubasTriVisio/Samples/Chapitre5/symphonie_x.flac" sampleRelative="../../../Samples/Chapitre5/symphonie_x.flac"/>
        </instrument>
        <instrument name="f_ch5_miraye_telephone" minnote="60" maxnote="60" rootnote="60" rootnotefine="0.000000" channel="1" cut="-1" polyphony="0" output="Center" volume="1.000000" pan="0.000000" pitch_over_range="false" play_mode="normal" play_loop="no" play_reverse="no">
          <variation minveloc="0" maxveloc="127" sample="/home/jeaneudes/OrageOTournage/ManytubasTriVisio/Samples/Chapitre5/f_ch5_miraye_telephone.flac" sampleRelative="../../../Samples/Chapitre5/f_ch5_miraye_telephone.flac"/>
        </instrument>
        <instrument name="boite_a_meuh" minnote="60" maxnote="60" rootnote="60" rootnotefine="0.000000" channel="1" cut="-1" polyphony="0" output="MultiDiff" volume="0.500000" pan="0.000000" pitch_over_range="false" play_mode="normal" play_loop="no" play_reverse="no">
          <variation minveloc="0" maxveloc="127" sample="/home/jeaneudes/OrageOTournage/ManytubasTriVisio/Samples/Common/boite_a_meuh.flac" sampleRelative="../../../Samples/Common/boite_a_meuh.flac"/>
        </instrument>
        <instrument name="f_ch5_meuglement" minnote="60" maxnote="60" rootnote="60" rootnotefine="0.000000" channel="1" cut="-1" polyphony="0" output="MultiDiff" volume="0.500000" pan="0.000000" pitch_over_range="false" play_mode="normal" play_loop="no" play_reverse="no">
          <variation minveloc="0" maxveloc="127" sample="/home/jeaneudes/OrageOTournage/ManytubasTriVisio/Samples/Chapitre5/f_ch5_meuglement.flac" sampleRelative="../../../Samples/Chapitre5/f_ch5_meuglement.flac"/>
        </instrument>
        <instrument name="tutoriel_p1" minnote="60" maxnote="60" rootnote="60" rootnotefine="0.000000" channel="1" cut="-1" polyphony="0" output="Center" volume="0.2500000" pan="0.000000" pitch_over_range="false" play_mode="normal" play_loop="no" play_reverse="no">
          <variation minveloc="0" maxveloc="127" sample="/home/jeaneudes/OrageOTournage/ManytubasTriVisio/Samples/Intro/tutoriel_p1.flac" sampleRelative="../../../Samples/Intro/tutoriel_p1.flac"/>
        </instrument>
        <instrument name="tutoriel_p2" minnote="60" maxnote="60" rootnote="60" rootnotefine="0.000000" channel="1" cut="-1" polyphony="0" output="Center" volume="0.2500000" pan="0.000000" pitch_over_range="false" play_mode="normal" play_loop="no" play_reverse="no">
          <variation minveloc="0" maxveloc="127" sample="/home/jeaneudes/OrageOTournage/ManytubasTriVisio/Samples/Intro/tutoriel_p2.flac" sampleRelative="../../../Samples/Intro/tutoriel_p2.flac"/>
        </instrument>
        <instrument name="tutoriel_p3" minnote="60" maxnote="60" rootnote="60" rootnotefine="0.000000" channel="1" cut="-1" polyphony="0" output="Center" volume="0.2500000" pan="0.000000" pitch_over_range="false" play_mode="normal" play_loop="no" play_reverse="no">
          <variation minveloc="0" maxveloc="127" sample="/home/jeaneudes/OrageOTournage/ManytubasTriVisio/Samples/Intro/tutoriel_p3.flac" sampleRelative="../../../Samples/Intro/tutoriel_p3.flac"/>
        </instrument>
        <instrument name="tutoriel_p4" minnote="60" maxnote="60" rootnote="60" rootnotefine="0.000000" channel="1" cut="-1" polyphony="0" output="Center" volume="0.2500000" pan="0.000000" pitch_over_range="false" play_mode="normal" play_loop="no" play_reverse="no">
          <variation minveloc="0" maxveloc="127" sample="/home/jeaneudes/OrageOTournage/ManytubasTriVisio/Samples/Intro/tutoriel_p4.flac" sampleRelative="../../../Samples/Intro/tutoriel_p4.flac"/>
        </instrument>
        <instrument name="tutoriel_p5" minnote="60" maxnote="60" rootnote="60" rootnotefine="0.000000" channel="1" cut="-1" polyphony="0" output="Center" volume="0.2500000" pan="0.000000" pitch_over_range="false" play_mode="normal" play_loop="no" play_reverse="no">
          <variation minveloc="0" maxveloc="127" sample="/home/jeaneudes/OrageOTournage/ManytubasTriVisio/Samples/Intro/tutoriel_p5.flac" sampleRelative="../../../Samples/Intro/tutoriel_p5.flac"/>
        </instrument>
        <instrument name="tutoriel_p6" minnote="60" maxnote="60" rootnote="60" rootnotefine="0.000000" channel="1" cut="-1" polyphony="0" output="Center" volume="0.2500000" pan="0.000000" pitch_over_range="false" play_mode="normal" play_loop="no" play_reverse="no">
          <variation minveloc="0" maxveloc="127" sample="/home/jeaneudes/OrageOTournage/ManytubasTriVisio/Samples/Intro/tutoriel_p6.flac" sampleRelative="../../../Samples/Intro/tutoriel_p6.flac"/>
        </instrument>
        <instrument name="tutoriel_p7" minnote="60" maxnote="60" rootnote="60" rootnotefine="0.000000" channel="1" cut="-1" polyphony="0" output="Center" volume="0.2500000" pan="0.000000" pitch_over_range="false" play_mode="normal" play_loop="no" play_reverse="no">
          <variation minveloc="0" maxveloc="127" sample="/home/jeaneudes/OrageOTournage/ManytubasTriVisio/Samples/Intro/tutoriel_p7.flac" sampleRelative="../../../Samples/Intro/tutoriel_p7.flac"/>
        </instrument>
        <instrument name="tutoriel_p8" minnote="60" maxnote="60" rootnote="60" rootnotefine="0.000000" channel="1" cut="-1" polyphony="0" output="Center" volume="0.2500000" pan="0.000000" pitch_over_range="false" play_mode="normal" play_loop="no" play_reverse="no">
          <variation minveloc="0" maxveloc="127" sample="/home/jeaneudes/OrageOTournage/ManytubasTriVisio/Samples/Intro/tutoriel_p8.flac" sampleRelative="../../../Samples/Intro/tutoriel_p8.flac"/>
        </instrument>
      </kit>
    </setup>
  </creation>
</tap192>
